{"name":"validar usuário desconhecido","status":"failed","statusDetails":{"known":false,"muted":false,"flaky":false,"message":"expected:<[2]> but was:<[{\n    \"page\": 2,\n    \"per_page\": 6,\n    \"total\": 12,\n    \"total_pages\": 2,\n    \"data\": [\n        {\n            \"id\": 7,\n            \"name\": \"sand dollar\",\n            \"year\": 2006,\n            \"color\": \"#DECDBE\",\n            \"pantone_value\": \"13-1106\"\n        },\n        {\n            \"id\": 8,\n            \"name\": \"chili pepper\",\n            \"year\": 2007,\n            \"color\": \"#9B1B30\",\n            \"pantone_value\": \"19-1557\"\n        },\n        {\n            \"id\": 9,\n            \"name\": \"blue iris\",\n            \"year\": 2008,\n            \"color\": \"#5A5B9F\",\n            \"pantone_value\": \"18-3943\"\n        },\n        {\n            \"id\": 10,\n            \"name\": \"mimosa\",\n            \"year\": 2009,\n            \"color\": \"#F0C05A\",\n            \"pantone_value\": \"14-0848\"\n        },\n        {\n            \"id\": 11,\n            \"name\": \"turquoise\",\n            \"year\": 2010,\n            \"color\": \"#45B5AA\",\n            \"pantone_value\": \"15-5519\"\n        },\n        {\n            \"id\": 12,\n            \"name\": \"honeysuckle\",\n            \"year\": 2011,\n            \"color\": \"#D94F70\",\n            \"pantone_value\": \"18-2120\"\n        }\n    ],\n    \"support\": {\n        \"url\": \"https://reqres.in/#support-heading\",\n        \"text\": \"To keep ReqRes free, contributions towards server costs are appreciated!\"\n    }\n}]>","trace":"org.junit.ComparisonFailure: expected:<[2]> but was:<[{\n    \"page\": 2,\n    \"per_page\": 6,\n    \"total\": 12,\n    \"total_pages\": 2,\n    \"data\": [\n        {\n            \"id\": 7,\n            \"name\": \"sand dollar\",\n            \"year\": 2006,\n            \"color\": \"#DECDBE\",\n            \"pantone_value\": \"13-1106\"\n        },\n        {\n            \"id\": 8,\n            \"name\": \"chili pepper\",\n            \"year\": 2007,\n            \"color\": \"#9B1B30\",\n            \"pantone_value\": \"19-1557\"\n        },\n        {\n            \"id\": 9,\n            \"name\": \"blue iris\",\n            \"year\": 2008,\n            \"color\": \"#5A5B9F\",\n            \"pantone_value\": \"18-3943\"\n        },\n        {\n            \"id\": 10,\n            \"name\": \"mimosa\",\n            \"year\": 2009,\n            \"color\": \"#F0C05A\",\n            \"pantone_value\": \"14-0848\"\n        },\n        {\n            \"id\": 11,\n            \"name\": \"turquoise\",\n            \"year\": 2010,\n            \"color\": \"#45B5AA\",\n            \"pantone_value\": \"15-5519\"\n        },\n        {\n            \"id\": 12,\n            \"name\": \"honeysuckle\",\n            \"year\": 2011,\n            \"color\": \"#D94F70\",\n            \"pantone_value\": \"18-2120\"\n        }\n    ],\n    \"support\": {\n        \"url\": \"https://reqres.in/#support-heading\",\n        \"text\": \"To keep ReqRes free, contributions towards server costs are appreciated!\"\n    }\n}]>\r\n\tat org.junit.Assert.assertEquals(Assert.java:115)\r\n\tat org.junit.Assert.assertEquals(Assert.java:144)\r\n\tat br.com.etech.api.steps.ReqresSteps.validarQueAPaginaDaListaFoiMostradaComSucesso(ReqresSteps.java:29)\r\n\tat ✽.Então validar que a pagina \"2\" da lista foi mostrada com sucesso(features/Reqres.feature:29)\r\n"},"stage":"finished","steps":[{"name":"Dado  recuperar as informações da pagina \"2\" da lista de usuário","status":"passed","stage":"finished","steps":[],"attachments":[],"parameters":[],"start":1609779049343,"stop":1609779049452},{"name":"Quando  realizar as requisição GET no serviço para  usuário desconhecido","status":"passed","stage":"finished","steps":[],"attachments":[],"parameters":[],"start":1609779049453,"stop":1609779051337},{"name":"Então  validar que a pagina \"2\" da lista foi mostrada com sucesso","status":"failed","stage":"finished","steps":[],"attachments":[],"parameters":[],"start":1609779051337,"stop":1609779051345}],"attachments":[],"parameters":[],"start":1609779049338,"stop":1609779051346,"uuid":"6b806cca-71d2-4eb7-925a-9e3943ce97af","historyId":"bbb64067dcc0fe5ff53707e61cf8de4","fullName":"Validar a chamada das requisições de usuario: validar usuário desconhecido","labels":[{"name":"feature","value":"Validar a chamada das requisições de usuario"},{"name":"story","value":"validar usuário desconhecido"},{"name":"tag","value":"resorceList"},{"name":"host","value":"NOTE-GT000227"},{"name":"thread","value":"13912@NOTE-GT000227.main(1)"},{"name":"package","value":"Validar a chamada das requisições de usuario"},{"name":"suite","value":"Validar a chamada das requisições de usuario"},{"name":"testClass","value":"validar usuário desconhecido"},{"name":"framework","value":"cucumberjvm"},{"name":"language","value":"java"}],"links":[]}